AWSTATS DATA FILE 7.7 (build 20180105)
# If you remove this file, all statistics for date 201811 will be lost/reset.
# Last config file used to build this data file was /home/appneuro/tmp/awstats/awstats.app.neurosig.com.conf.

# Position (offset in bytes) in this file for beginning of each section for
# direct I/O access. If you made changes somewhere in this file, you should
# also remove completely the MAP section (AWStats will rewrite it at next
# update).
BEGIN_MAP 28
POS_GENERAL 2013                
POS_TIME 2685                
POS_VISITOR 6419                
POS_DAY 7020                
POS_DOMAIN 3248                
POS_LOGIN 3494                
POS_ROBOT 3649                
POS_WORMS 3852                
POS_EMAILSENDER 3983                
POS_EMAILRECEIVER 4126                
POS_SESSION 7126                
POS_SIDER 7295                
POS_FILETYPES 4261                
POS_DOWNLOADS 4438                
POS_OS 4486                
POS_BROWSER 4587                
POS_SCREENSIZE 4712                
POS_UNKNOWNREFERER 4786                
POS_UNKNOWNREFERERBROWSER 4873                
POS_ORIGIN 4955                
POS_SEREFERRALS 5089                
POS_PAGEREFS 5233                
POS_SEARCHWORDS 5802                
POS_KEYWORDS 5954                
POS_MISC 2348                
POS_ERRORS 6013                
POS_CLUSTER 3350                
POS_SIDER_404 6110                
END_MAP

# LastLine    = Date of last record processed - Last record line number in last log - Last record offset in last log - Last record signature value
# FirstTime   = Date of first visit for history file
# LastTime    = Date of last visit for history file
# LastUpdate  = Date of last update - Nb of parsed records - Nb of parsed old records - Nb of parsed new records - Nb of parsed corrupted - Nb of parsed dropped
# TotalVisits = Number of visits
# TotalUnique = Number of unique visitors
# MonthHostsKnown   = Number of hosts known
# MonthHostsUnKnown = Number of hosts unknown
BEGIN_GENERAL 8
LastLine 20181201085749 1 0 9669459063760
FirstTime 20181119153652
LastTime 20181120165608
LastUpdate 20181202071339 1 0 0 0 0
TotalVisits 13                  
TotalUnique 13                  
MonthHostsKnown 0                   
MonthHostsUnknown 13                  
END_GENERAL

# Misc ID - Pages - Hits - Bandwidth
BEGIN_MISC 10
QuickTimeSupport 0 0 0
DirectorSupport 0 0 0
JavascriptDisabled 0 0 0
AddToFavourites 0 41 0
WindowsMediaPlayerSupport 0 0 0
FlashSupport 0 0 0
PDFSupport 0 0 0
RealPlayerSupport 0 0 0
TotalMisc 0 0 0
JavaEnabled 0 0 0
END_MISC

# Hour - Pages - Hits - Bandwidth - Not viewed Pages - Not viewed Hits - Not viewed Bandwidth
BEGIN_TIME 24
0 0 0 0 1 2 428
1 0 0 0 2 2 422
2 0 0 0 1 1 214
3 0 0 0 3 4 851
4 0 0 0 0 0 0
5 0 0 0 2 3 646
6 0 0 0 4 4 836
7 0 0 0 0 1 219
8 0 0 0 3 3 649
9 0 0 0 2 2 418
10 0 0 0 2 2 1649
11 0 0 0 2 3 641
12 0 0 0 1 1 209
13 0 0 0 1 1 209
14 0 0 0 3 4 637
15 19 44 8370261 3 11 91126
16 13 53 6089758 7 10 36343
17 0 0 0 2 2 418
18 30 35 1232852 4 33 327265
19 3 3 74850 1 5 34283
20 0 0 0 2 2 1652
21 0 0 0 1 1 209
22 0 0 0 2 3 637
23 0 0 0 0 0 0
END_TIME

# Domain - Pages - Hits - Bandwidth
# The 25 first Pages must be first (order not required for others)
BEGIN_DOMAIN 2
zz 45 65 2912180
us 20 70 12855541
END_DOMAIN

# Cluster ID - Pages - Hits - Bandwidth
BEGIN_CLUSTER 0
END_CLUSTER

# Login - Pages - Hits - Bandwidth - Last visit
# The 10 first Pages must be first (order not required for others)
BEGIN_LOGIN 0
END_LOGIN

# Robot ID - Hits - Bandwidth - Last visit - Hits on robots.txt
# The 25 first Hits must be first (order not required for others)
BEGIN_ROBOT 2
no_user_agent 3 1440 20181120164610 0
bingbot/ 2 2883 20181120102435 0
END_ROBOT

# Worm ID - Hits - Bandwidth - Last visit
# The 5 first Hits must be first (order not required for others)
BEGIN_WORMS 0
END_WORMS

# EMail - Hits - Bandwidth - Last visit
# The 20 first Hits must be first (order not required for others)
BEGIN_EMAILSENDER 0
END_EMAILSENDER

# EMail - Hits - Bandwidth - Last visit
# The 20 first hits must be first (order not required for others)
BEGIN_EMAILRECEIVER 0
END_EMAILRECEIVER

# Files type - Hits - Bandwidth - Bandwidth without compression - Bandwidth after compression
BEGIN_FILETYPES 6
html 21 51326 0 0
png 14 260338 0 0
php 33 897333 0 0
Unknown 11 178150 0 0
css 42 4732768 0 0
js 14 9647806 0 0
END_FILETYPES

# Downloads - Hits - Bandwidth
BEGIN_DOWNLOADS 0
END_DOWNLOADS

# OS ID - Hits
BEGIN_OS ID - Hits - Pages 3
linux 7 2
win10 92 57
macosx10 36 6
END_OS

# Browser ID - Hits - Pages
BEGIN_BROWSER 3
chrome69.0.3497.100 7 2
chrome45.0.2454.101 36 6
chrome70.0.3538.102 92 57
END_BROWSER

# Screen size - Hits
BEGIN_SCREENSIZE 0
END_SCREENSIZE

# Unknown referer OS - Last visit date
BEGIN_UNKNOWNREFERER 0
END_UNKNOWNREFERER

# Unknown referer Browser - Last visit date
BEGIN_UNKNOWNREFERERBROWSER 0
END_UNKNOWNREFERERBROWSER

# Origin - Pages - Hits 
BEGIN_ORIGIN 6
From0 52 52
From1 0 0
From2 0 0
From3 9 24
From4 4 59
From5 0 0
END_ORIGIN

# Search engine referers ID - Pages - Hits
BEGIN_SEREFERRALS 0
END_SEREFERRALS

# External page referers - Pages - Hits
# The 25 first Pages must be first (order not required for others)
BEGIN_PAGEREFS 7
http://app-neurosig-com-ip-67-225-161-100.testlw.domains 2 17
https://liquidweb.lightning.force.com 2 2
https://67.225.161.100:2087 1 1
http://app-neurosig-com-ip-67-225-161-100.testlw.domains/welcome 1 1
http://app-neurosig-com-ip-67-225-161-100.testlw.domains/admin/users 1 1
http://app-neurosig-com-ip-67-225-161-100.testlw.domains/uploads/create 1 1
http://app-neurosig-com-ip-67-225-161-100.testlw.domains/login 1 1
END_PAGEREFS

# Search keyphrases - Number of search
# The 10 first number of search must be first (order not required for others)
BEGIN_SEARCHWORDS 0
END_SEARCHWORDS

# Search keywords - Number of search
# The 25 first number of search must be first (order not required for others)
BEGIN_KEYWORDS 0
END_KEYWORDS

# Errors - Hits - Bandwidth
BEGIN_ERRORS 2
302 50 10750
503 4 0
END_ERRORS

# URL with 404 errors - Hits - Last URL referrer
BEGIN_SIDER_404 0
END_SIDER_404

# Host - Pages - Hits - Bandwidth - Last visit date - [Start date of last visit] - [Last page of last visit]
# [Start date of last visit] and [Last page of last visit] are saved only if session is not finished
# The 25 first Hits must be first (order not required for others)
BEGIN_VISITOR 13
10.20.45.21 33 38 1307702 20181119190428
10.20.45.73 10 20 1072915 20181119160114
209.59.185.35 10 20 4948696 20181119155622
10.255.234.196 2 7 531563 20181120165608
209.59.185.34 2 7 2353542 20181119153742
54.224.72.181 1 6 530127 20181119160431
54.183.147.161 1 6 530126 20181119160428
54.255.163.45 1 6 530127 20181119160440
13.210.176.62 1 6 530124 20181119160508
68.235.61.75 1 6 2347574 20181119160122
34.245.36.143 1 6 530127 20181119160433
72.199.22.227 1 1 24973 20181119162823
54.232.205.132 1 6 530125 20181119160442
END_VISITOR

# Date - Pages - Hits - Bandwidth - Visits
BEGIN_DAY 2
20181119 63 128 15236158 12
20181120 2 7 531563 1
END_DAY

# Session range - Number of visits
BEGIN_SESSION 3
0s-30s 9
5mn-15mn 1
15mn-30mn 3
END_SESSION

# URL - Pages - Bandwidth - Entry - Exit
# The 25 first Pages must be first (order not required for others)
BEGIN_SIDER 7
/php-info-test.php 33 897333 3 2
/ 21 51326 10 10
/login 7 20569 0 1
/uploads/create 1 9904 0 0
/home 1 9441 0 0
/welcome 1 9461 0 0
/admin/users 1 128775 0 0
END_SIDER
