AWSTATS DATA FILE 7.7 (build 20180105)
# If you remove this file, all statistics for date 201901 will be lost/reset.
# Last config file used to build this data file was /home/appneuro/tmp/awstats/ssl/awstats.app.neurosig.com.conf.

# Position (offset in bytes) in this file for beginning of each section for
# direct I/O access. If you made changes somewhere in this file, you should
# also remove completely the MAP section (AWStats will rewrite it at next
# update).
BEGIN_MAP 28
POS_GENERAL 2017                
POS_TIME 2684                
POS_VISITOR 8199                
POS_DAY 9621                
POS_DOMAIN 3493                
POS_LOGIN 3816                
POS_ROBOT 3971                
POS_WORMS 4582                
POS_EMAILSENDER 4713                
POS_EMAILRECEIVER 4856                
POS_SESSION 10413               
POS_SIDER 10619               
POS_FILETYPES 4991                
POS_DOWNLOADS 5161                
POS_OS 5209                
POS_BROWSER 5438                
POS_SCREENSIZE 5987                
POS_UNKNOWNREFERER 6061                
POS_UNKNOWNREFERERBROWSER 6331                
POS_ORIGIN 6474                
POS_SEREFERRALS 6614                
POS_PAGEREFS 6782                
POS_SEARCHWORDS 7071                
POS_KEYWORDS 7234                
POS_MISC 2347                
POS_ERRORS 7304                
POS_CLUSTER 3672                
POS_SIDER_404 7449                
END_MAP

# LastLine    = Date of last record processed - Last record line number in last log - Last record offset in last log - Last record signature value
# FirstTime   = Date of first visit for history file
# LastTime    = Date of last visit for history file
# LastUpdate  = Date of last update - Nb of parsed records - Nb of parsed old records - Nb of parsed new records - Nb of parsed corrupted - Nb of parsed dropped
# TotalVisits = Number of visits
# TotalUnique = Number of unique visitors
# MonthHostsKnown   = Number of hosts known
# MonthHostsUnKnown = Number of hosts unknown
BEGIN_GENERAL 8
LastLine 20190201003017 53 13293 19952952300374
FirstTime 0
LastTime 20190131221113
LastUpdate 20190201071537 53 0 52 0 0
TotalVisits 109                 
TotalUnique 28                  
MonthHostsKnown 0                   
MonthHostsUnknown 38                  
END_GENERAL

# Misc ID - Pages - Hits - Bandwidth
BEGIN_MISC 10
JavascriptDisabled 0 0 0
RealPlayerSupport 0 0 0
FlashSupport 0 0 0
AddToFavourites 0 42 0
WindowsMediaPlayerSupport 0 0 0
QuickTimeSupport 0 0 0
JavaEnabled 0 0 0
DirectorSupport 0 0 0
TotalMisc 0 0 0
PDFSupport 0 0 0
END_MISC

# Hour - Pages - Hits - Bandwidth - Not viewed Pages - Not viewed Hits - Not viewed Bandwidth
BEGIN_TIME 24
0 3 14 593649 31 42 2383523
1 1 1 1722 24 35 1040405
2 2 16 1100299 26 34 42598
3 14 47 726174 24 28 34137
4 1 39 181671 22 28 531850
5 5 18 996928 23 25 23406
6 169 280 11715041 98 123 717013
7 101 197 8063472 57 78 182551
8 45 81 2411958 48 58 2423551
9 42 77 390599000 40 47 404941
10 10 28 629362 24 27 34764
11 27 43 758964 27 39 1051947
12 15 19 789709118 21 26 22148
13 64 79 1393035 45 50 44314
14 41 47 708506 48 56 556424
15 6 26 637955 30 46 574603
16 176 197 6154796 245 249 641699
17 10 12 60103 11 12 10107
18 12 12 31274 24 31 2365806
19 3 3 12693 26 33 26013
20 2 7 530122 13 22 2350026
21 4 4 1436 23 32 554993
22 2 9 204035 44 53 79454
23 4 18 533798 27 46 697884
END_TIME

# Domain - Pages - Hits - Bandwidth
# The 25 first Pages must be first (order not required for others)
BEGIN_DOMAIN 8
us 740 1244 1216626298
cn 10 10 40560
de 5 5 0
in 1 6 530408
ca 1 1 5974
nl 1 1 1436
es 1 6 530409
gb 0 1 20026
END_DOMAIN

# Cluster ID - Pages - Hits - Bandwidth
BEGIN_CLUSTER 0
END_CLUSTER

# Login - Pages - Hits - Bandwidth - Last visit
# The 10 first Pages must be first (order not required for others)
BEGIN_LOGIN 0
END_LOGIN

# Robot ID - Hits - Bandwidth - Last visit - Hits on robots.txt
# The 25 first Hits must be first (order not required for others)
BEGIN_ROBOT 12
bingbot/ 247 2305851 20190131230425 69
Googlebot/ 184 1791298 20190131233322 13
bingpreview 27 10851343 20190122211405 0
(firefox/)([0-9]\.|[0-1][0]\.) 16 580672 20190129221506 0
YandexBot/ 11 30205 20190125150821 3
AhrefsBot/ 9 5311 20190130231234 6
bot[\s_+:,\.\;\/\\-] 7 28392 20190130055037 0
aiHitBot/ 6 510119 20190106111740 1
unknown 3 72 20190124183641 3
no_user_agent 2 8112 20190121021516 0
Cliqzbot/ 2 1461 20190102204601 1
Googlebot\-Image/ 1 20026 20190124001811 0
END_ROBOT

# Worm ID - Hits - Bandwidth - Last visit
# The 5 first Hits must be first (order not required for others)
BEGIN_WORMS 0
END_WORMS

# EMail - Hits - Bandwidth - Last visit
# The 20 first Hits must be first (order not required for others)
BEGIN_EMAILSENDER 0
END_EMAILSENDER

# EMail - Hits - Bandwidth - Last visit
# The 20 first hits must be first (order not required for others)
BEGIN_EMAILRECEIVER 0
END_EMAILRECEIVER

# Files type - Hits - Bandwidth - Bandwidth without compression - Bandwidth after compression
BEGIN_FILETYPES 5
css 195 9350910 0 0
js 79 25562337 0 0
png 241 2763588 0 0
html 117 203352 0 0
Unknown 642 1179874924 0 0
END_FILETYPES

# Downloads - Hits - Bandwidth
BEGIN_DOWNLOADS 0
END_DOWNLOADS

# OS ID - Hits
BEGIN_OS ID - Hits - Pages 12
ios_iphone 51 32
winlong 1 1
Unknown 17 17
win7 785 399
winxp 13 1
linuxubuntu 4 4
win8.1 63 47
macosx 21 16
linux 6 6
ios_ipad 42 33
macosx11 14 14
win10 257 189
END_OS

# Browser ID - Hits - Pages
BEGIN_BROWSER 28
chrome67.0.3396.99 15 15
firefox61.0 31 31
safari12.0 6 1
chrome34.0.1847.116 1 1
msie7.0 110 0
firefox11.0 12 0
msie10.0 47 0
chrome40.0.2214.85 5 5
safari11.0 62 62
safari11.1.2 15 15
chrome60.0.3112.101 4 4
chrome28.0.1500.52 4 4
firefox52.0 4 4
firefox53.0 1 1
Unknown 13 13
iphone 14 0
edge12 1 0
netscape5.0 1 1
mozilla 4 4
safari2.0.4 6 1
msie11.0 716 424
firefox47.0 10 10
firefox46.0 2 2
chrome46.0.2490.80 1 1
firefox45.0 1 1
chrome70.0.3538.77 1 1
chrome71.0.3578.98 176 156
safari 11 2
END_BROWSER

# Screen size - Hits
BEGIN_SCREENSIZE 0
END_SCREENSIZE

# Unknown referer OS - Last visit date
BEGIN_UNKNOWNREFERER 3
Mozilla/5.0_(compatible;_NetcraftSurveyAgent/1.0;__info@netcraft.com) 20190131221113
Mozilla/5.0_zgrab/0.x 20190131182749
WordPress/4.9.9;_https://support.neurosig.com 20190124092414
END_UNKNOWNREFERER

# Unknown referer Browser - Last visit date
BEGIN_UNKNOWNREFERERBROWSER 1
WordPress/4.9.9;_https://support.neurosig.com 20190124092414
END_UNKNOWNREFERERBROWSER

# Origin - Pages - Hits 
BEGIN_ORIGIN 6
From0 105 288
From1 0 0
From2 2 3
From3 15 36
From4 637 947
From5 0 0
END_ORIGIN

# Search engine referers ID - Pages - Hits
BEGIN_SEREFERRALS 2
google_com 0 1
bing 2 2
END_SEREFERRALS

# External page referers - Pages - Hits
# The 25 first Pages must be first (order not required for others)
BEGIN_PAGEREFS 4
https://neurosig.com 11 11
https://www.makethemonkeydance.com/monkey.shines.php 2 7
https://support.neurosig.com 2 2
https://sucuri.net 0 16
END_PAGEREFS

# Search keyphrases - Number of search
# The 10 first number of search must be first (order not required for others)
BEGIN_SEARCHWORDS 1
neurosig 2
END_SEARCHWORDS

# Search keywords - Number of search
# The 25 first number of search must be first (order not required for others)
BEGIN_KEYWORDS 1
neurosig 2
END_KEYWORDS

# Errors - Hits - Bandwidth
BEGIN_ERRORS 6
404 23 59497
302 620 124692
301 1 243
400 5 0
500 11 24497
421 3 966
END_ERRORS

# URL with 404 errors - Hits - Last URL referrer
BEGIN_SIDER_404 10
/xmlrpc.php 2 -
/.env 1 -
/wp-login.php 3 http://www.google.com.hk
/wp/wp-login.php 1 http://app.neurosig.com/wp/wp-login.php
/.well-known/assetlinks.json 1 -
/css/bootswatch.min.css 1 https://app.neurosig.com/login
/svg/500.svg 11 https://app.neurosig.com/files
/phpmyadmin 1 https://app.neurosig.com/phpmyadmin/
/blog/wp-login.php 1 http://app.neurosig.com/blog/wp-login.php
/site/wp-login.php 1 http://app.neurosig.com/site/wp-login.php
END_SIDER_404

# Host - Pages - Hits - Bandwidth - Last visit date - [Start date of last visit] - [Last page of last visit]
# [Start date of last visit] and [Last page of last visit] are saved only if session is not finished
# The 25 first Hits must be first (order not required for others)
BEGIN_VISITOR 38
167.98.110.171 377 763 28800743 20190130074127
68.101.212.149 154 178 1179801101 20190128134207
52.203.142.240 89 96 2603945 20190129163315
35.175.205.111 81 90 3290366 20190131163355
67.225.190.162 13 13 7934 20190124092414
60.191.38.77 10 10 40560 20190126125545
138.246.253.5 5 5 0 20190131143314
54.39.209.44 4 4 23896 20190131163502
34.76.190.176 4 4 6238 20190124184153
72.199.22.227 3 60 1222467 20190110235427
209.59.185.35 2 2 10030 20190124032618
45.55.39.49 1 1 4056 20190105172609
68.183.146.233 1 1 4056 20190131221113
220.227.0.209 1 6 530408 20190107002036
198.27.70.45 1 1 5974 20190103145649
209.59.185.34 1 1 5974 20190124032619
64.202.160.250 1 1 1439 20190105002941
52.24.43.29 1 1 1439 20190118060013
54.210.173.215 1 1 1437 20190117044359
34.246.195.252 1 1 1722 20190119013445
62.174.155.181 1 6 530409 20190125030636
171.67.70.42 1 1 1438 20190131182749
68.183.144.106 1 1 4056 20190102190145
45.40.192.196 1 1 1724 20190115004204
46.101.80.192 1 1 1436 20190118212915
66.249.87.112 0 1 20026 
66.249.84.80 0 6 120156 
136.26.113.208 0 1 0 
137.110.101.75 0 1 20026 
107.77.227.209 0 1 20026 
216.9.110.2 0 1 20026 
66.249.84.84 0 2 40052 
66.249.84.82 0 4 80104 
82.132.232.71 0 1 20026 
216.9.110.1 1 3 159503 20190107200443
192.241.139.77 1 1 0 20190105212134
54.237.41.45 1 1 1725 20190117062103
216.9.110.15 0 2 350593 
END_VISITOR

# Date - Pages - Hits - Bandwidth - Visits
BEGIN_DAY 31
20190101 6 6 10337 1
20190102 9 9 22496 3
20190103 119 185 5383241 9
20190104 63 89 2836189 6
20190105 11 21 1076074 6
20190106 6 6 10330 1
20190107 29 45 1683278 5
20190108 34 63 1945226 4
20190109 6 16 50388 1
20190110 56 95 2960619 6
20190111 6 6 10336 1
20190112 20 20 59745 3
20190113 6 23 70417 1
20190114 28 52 1832695 3
20190115 52 94 3035781 5
20190116 65 95 3255238 7
20190117 9 13 430056 4
20190118 7 8 361581 3
20190119 6 7 360423 2
20190120 5 6 358701 1
20190121 5 6 358706 1
20190122 38 59 390756844 3
20190123 28 34 967983 4
20190124 35 88 2526331 7
20190125 11 24 1805944 3
20190126 7 9 386844 2
20190127 5 6 358708 1
20190128 40 78 791851783 5
20190129 19 30 1472267 3
20190130 16 63 1088399 3
20190131 12 18 428151 5
END_DAY

# Session range - Number of visits
BEGIN_SESSION 7
30mn-1h 6
5mn-15mn 4
2mn-5mn 5
1h+ 9
30s-2mn 8
15mn-30mn 6
0s-30s 71
END_SESSION

# URL - Pages - Bandwidth - Entry - Exit
# The 25 first Pages must be first (order not required for others)
BEGIN_SIDER 61
/login 249 458014 44 44
/ 117 203352 59 31
/uploads/create 107 258622 0 4
/welcome 64 142516 0 1
/files 61 629611 2 11
/downloads 59 258937 0 12
/password/reset 17 27962 0 1
/uploader 16 35598 0 0
/api/auth 9 2381 0 4
/oauth/token 4 5553 4 0
/home 3 6752 0 0
/uploader-store 2 114 0 0
/downloads/download/1455 2 407375305 0 0
/admin/files/1412/reviews/1412/edit 2 11834 0 0
/admin/files/1445/reviews/1445/edit 1 5909 0 0
/admin/files/1419/reviews/1419/edit 1 5912 0 0
/admin/files/1411/reviews/1411/edit 1 5917 0 0
/admin/files/1428/reviews/1428/edit 1 5909 0 0
/admin/files/1424/reviews/1424/edit 1 5915 0 0
/admin/files/1413/reviews/1413/edit 1 5916 0 0
/admin/files/1440/reviews/1440/edit 1 5911 0 0
/admin/files/1443/reviews/1443/edit 1 5908 0 0
/admin/files/1408/reviews/1408/edit 1 5913 0 0
/admin/files/1433/reviews/1433/edit 1 5904 0 0
/admin/files/1432/reviews/1432/edit 1 5913 0 0
/admin/files/1422/reviews/1422/edit 1 5916 0 0
/admin/files/1446/reviews/1446/edit 1 5913 0 0
/admin/files/1453/reviews/1453/edit 1 5911 0 0
/admin/files/1416/reviews/1416/edit 1 5917 0 0
/admin/files/1410/reviews/1410/edit 1 5914 0 0
/downloads/download/1451 1 388191664 0 1
/admin/files/1418/reviews/1418/edit 1 5918 0 0
/admin/files/1451/reviews/1451/edit 1 5910 0 0
/admin/files/1429/reviews/1429/edit 1 5908 0 0
/admin/files/1414/reviews/1414/edit 1 5916 0 0
/admin/files/1423/reviews/1423/edit 1 5917 0 0
/admin/files/1427/reviews/1427/edit 1 5910 0 0
/admin/files/1439/reviews/1439/edit 1 5910 0 0
/admin/files/1436/reviews/1436/edit 1 5920 0 0
/admin/files/1421/reviews/1421/edit 1 5914 0 0
/admin/files/1426/reviews/1426/edit 1 5917 0 0
/admin/files/1452/reviews/1452/edit 1 5913 0 0
/admin/files/1417/reviews/1417/edit 1 5917 0 0
/admin/files/1455/reviews/1455/edit 1 5909 0 0
/downloads/download/1454 1 382204015 0 0
/admin/files/1444/reviews/1444/edit 1 5909 0 0
/admin/files/1438/reviews/1438/edit 1 5911 0 0
/admin/files/1431/reviews/1431/edit 1 5908 0 0
/admin/files/1450/reviews/1450/edit 1 5908 0 0
/admin/files/1442/reviews/1442/edit 1 5910 0 0
/admin/files/1437/reviews/1437/edit 1 5911 0 0
/admin/files/1454/reviews/1454/edit 1 5909 0 0
/admin/files/1415/reviews/1415/edit 1 5918 0 0
/admin/files/1430/reviews/1430/edit 1 5909 0 0
/admin/files/1409/reviews/1409/edit 1 5912 0 0
/admin/files/1448/reviews/1448/edit 1 5909 0 0
/admin/files/1441/reviews/1441/edit 1 5910 0 0
/admin/files/1434/reviews/1434/edit 1 5905 0 0
/admin/files/1425/reviews/1425/edit 1 5916 0 0
/admin/files/1447/reviews/1447/edit 1 5913 0 0
/admin/files/1449/reviews/1449/edit 1 5911 0 0
END_SIDER
