AWSTATS DATA FILE 7.7 (build 20180105)
# If you remove this file, all statistics for date 201810 will be lost/reset.
# Last config file used to build this data file was /home/appneuro/tmp/awstats/ssl/awstats.app.neurosig.com.conf.

# Position (offset in bytes) in this file for beginning of each section for
# direct I/O access. If you made changes somewhere in this file, you should
# also remove completely the MAP section (AWStats will rewrite it at next
# update).
BEGIN_MAP 28
POS_GENERAL 2017                
POS_TIME 2690                
POS_VISITOR 6822                
POS_DAY 7327                
POS_DOMAIN 3307                
POS_LOGIN 3584                
POS_ROBOT 3739                
POS_WORMS 3973                
POS_EMAILSENDER 4104                
POS_EMAILRECEIVER 4247                
POS_SESSION 7456                
POS_SIDER 7629                
POS_FILETYPES 4382                
POS_DOWNLOADS 4557                
POS_OS 4605                
POS_BROWSER 4788                
POS_SCREENSIZE 5052                
POS_UNKNOWNREFERER 5126                
POS_UNKNOWNREFERERBROWSER 5274                
POS_ORIGIN 5417                
POS_SEREFERRALS 5557                
POS_PAGEREFS 5731                
POS_SEARCHWORDS 6066                
POS_KEYWORDS 6236                
POS_MISC 2353                
POS_ERRORS 6313                
POS_CLUSTER 3440                
POS_SIDER_404 6449                
END_MAP

# LastLine    = Date of last record processed - Last record line number in last log - Last record offset in last log - Last record signature value
# FirstTime   = Date of first visit for history file
# LastTime    = Date of last visit for history file
# LastUpdate  = Date of last update - Nb of parsed records - Nb of parsed old records - Nb of parsed new records - Nb of parsed corrupted - Nb of parsed dropped
# TotalVisits = Number of visits
# TotalUnique = Number of unique visitors
# MonthHostsKnown   = Number of hosts known
# MonthHostsUnKnown = Number of hosts unknown
BEGIN_GENERAL 8
LastLine 20181119155159 1 0 12994841247658
FirstTime 20181007021639
LastTime 20181020122829
LastUpdate 20181120070913 1 0 0 0 0
TotalVisits 18                  
TotalUnique 10                  
MonthHostsKnown 0                   
MonthHostsUnknown 11                  
END_GENERAL

# Misc ID - Pages - Hits - Bandwidth
BEGIN_MISC 10
TotalMisc 0 0 0
JavaEnabled 0 0 0
RealPlayerSupport 0 0 0
QuickTimeSupport 0 0 0
WindowsMediaPlayerSupport 0 0 0
AddToFavourites 0 14 0
JavascriptDisabled 0 0 0
FlashSupport 0 0 0
PDFSupport 0 0 0
DirectorSupport 0 0 0
END_MISC

# Hour - Pages - Hits - Bandwidth - Not viewed Pages - Not viewed Hits - Not viewed Bandwidth
BEGIN_TIME 24
0 2 12 1060243 0 0 0
1 0 0 0 3 4 5120
2 8 18 1068471 3 7 520012
3 10 32 2169745 3 10 544149
4 15 20 693390 2 3 11483
5 0 0 0 0 0 0
6 14 23 1067921 6 7 12996
7 143 181 4469211 63 69 81499
8 49 54 871786 15 25 71463
9 0 0 0 0 0 0
10 0 0 0 2 2 1922
11 0 0 0 0 0 0
12 1 1 465 1 3 1484
13 0 0 0 0 0 0
14 27 27 532629 6 6 1208
15 0 0 0 0 0 0
16 8 8 13777 8 8 1584
17 0 0 0 0 0 0
18 0 0 0 1 1 1646
19 2 12 1060243 0 0 0
20 2 12 1060245 1 2 1461
21 0 0 0 0 0 0
22 2 12 1060244 0 0 0
23 0 0 0 0 0 0
END_TIME

# Domain - Pages - Hits - Bandwidth
# The 25 first Pages must be first (order not required for others)
BEGIN_DOMAIN 4
us 184 259 9147655
gb 94 131 4349834
zz 5 20 1590829
dk 0 2 40052
END_DOMAIN

# Cluster ID - Pages - Hits - Bandwidth
BEGIN_CLUSTER 0
END_CLUSTER

# Login - Pages - Hits - Bandwidth - Last visit
# The 10 first Pages must be first (order not required for others)
BEGIN_LOGIN 0
END_LOGIN

# Robot ID - Hits - Bandwidth - Last visit - Hits on robots.txt
# The 25 first Hits must be first (order not required for others)
BEGIN_ROBOT 3
bingbot/ 10 514949 20181008024718 2
Googlebot/ 9 514720 20181007203647 1
curl 2 8112 20181008082851 0
END_ROBOT

# Worm ID - Hits - Bandwidth - Last visit
# The 5 first Hits must be first (order not required for others)
BEGIN_WORMS 0
END_WORMS

# EMail - Hits - Bandwidth - Last visit
# The 20 first Hits must be first (order not required for others)
BEGIN_EMAILSENDER 0
END_EMAILSENDER

# EMail - Hits - Bandwidth - Last visit
# The 20 first hits must be first (order not required for others)
BEGIN_EMAILRECEIVER 0
END_EMAILRECEIVER

# Files type - Hits - Bandwidth - Bandwidth without compression - Bandwidth after compression
BEGIN_FILETYPES 6
css 78 4114182 0 0
js 26 9104394 0 0
php 1 465 0 0
html 35 52699 0 0
png 25 480624 0 0
Unknown 247 1376006 0 0
END_FILETYPES

# Downloads - Hits - Bandwidth
BEGIN_DOWNLOADS 0
END_DOWNLOADS

# OS ID - Hits
BEGIN_OS ID - Hits - Pages 9
winxp 2 2
Unknown 15 15
linuxandroid 2 2
winlong 34 14
macosx 6 1
win10 182 145
ios_iphone 2 2
win7 155 98
linux 14 4
END_OS

# Browser ID - Hits - Pages
BEGIN_BROWSER 13
Unknown 15 15
chrome68.0.3440.106 6 1
safari4.0 2 2
chrome69.0.3497.100 116 91
firefox58.0 1 1
edge17 16 11
msie8.0 10 10
msie11.0 137 95
chrome17.0.963.79 2 2
firefox62.0 55 45
lg\- 2 2
msie10.0 2 0
msie9.0 48 8
END_BROWSER

# Screen size - Hits
BEGIN_SCREENSIZE 0
END_SCREENSIZE

# Unknown referer OS - Last visit date
BEGIN_UNKNOWNREFERER 1
WordPress/4.9.8;_https://support.neurosig.com 20181008075903
END_UNKNOWNREFERER

# Unknown referer Browser - Last visit date
BEGIN_UNKNOWNREFERERBROWSER 1
WordPress/4.9.8;_https://support.neurosig.com 20181008075903
END_UNKNOWNREFERERBROWSER

# Origin - Pages - Hits 
BEGIN_ORIGIN 6
From0 53 55
From1 0 0
From2 13 13
From3 15 15
From4 202 329
From5 0 0
END_ORIGIN

# Search engine referers ID - Pages - Hits
BEGIN_SEREFERRALS 2
www_google_com 2 2
bing 11 11
END_SEREFERRALS

# External page referers - Pages - Hits
# The 25 first Pages must be first (order not required for others)
BEGIN_PAGEREFS 6
http://www.facebook.com 4 4
http://sucuri.net 4 4
https://neurosig.com 3 3
https://neurosig.com/contact-2-2/ 2 2
https://liquidweb.lightning.force.com 1 1
https://67.225.161.100:2087 1 1
END_PAGEREFS

# Search keyphrases - Number of search
# The 10 first number of search must be first (order not required for others)
BEGIN_SEARCHWORDS 2
neurosig 9
bing 2
END_SEARCHWORDS

# Search keywords - Number of search
# The 25 first number of search must be first (order not required for others)
BEGIN_KEYWORDS 2
neurosig 9
bing 2
END_KEYWORDS

# Errors - Hits - Bandwidth
BEGIN_ERRORS 5
301 1 240
404 8 17912
302 65 11707
500 10 22270
413 28 8127
END_ERRORS

# URL with 404 errors - Hits - Last URL referrer
BEGIN_SIDER_404 1
/svg/500.svg 8 https://app.neurosig.com/downloads/download/1262
END_SIDER_404

# Host - Pages - Hits - Bandwidth - Last visit date - [Start date of last visit] - [Last page of last visit]
# [Start date of last visit] and [Last page of last visit] are saved only if session is not finished
# The 25 first Hits must be first (order not required for others)
BEGIN_VISITOR 11
90.155.35.78 94 131 4349834 20181008075254
72.199.22.227 90 115 3541537 20181008083752
75.80.107.98 55 65 1326905 20181008082404
173.255.233.124 16 16 27559 20181008071012
67.225.190.162 15 15 10679 20181008075903
23.101.169.3 8 48 4240975 20181008002319
10.20.7.140 2 7 530122 20181007021639
10.255.234.143 1 6 530122 20181007030514
10.20.4.47 1 6 530120 20181008082215
10.30.5.209 1 1 465 20181020122829
80.209.148.212 0 2 40052 
END_VISITOR

# Date - Pages - Hits - Bandwidth - Visits
BEGIN_DAY 3
20181007 74 139 7618692 10
20181008 208 272 7509213 7
20181020 1 1 465 1
END_DAY

# Session range - Number of visits
BEGIN_SESSION 4
2mn-5mn 1
30mn-1h 2
0s-30s 12
1h+ 3
END_SESSION

# URL - Pages - Bandwidth - Entry - Exit
# The 25 first Pages must be first (order not required for others)
BEGIN_SIDER 28
/uploads/create 67 156570 0 1
/login 42 73736 3 2
/ 35 52699 11 7
/downloads 31 567633 0 1
/uploader 20 42565 0 2
/files 16 64669 0 0
/welcome 13 28839 0 0
/uploads 11 0 0 0
/admin/files 11 366122 0 1
/api/auth 9 2345 0 3
/oauth/token 6 8334 3 0
/uploader-store 3 171 0 0
/home 3 6249 0 0
/downloads/download/1274 2 184 0 0
/admin/files/1182 1 2772 0 0
/admin/privacies 1 2403 0 0
/admin/files/1209 1 2763 0 0
/admin/files/1274 1 2767 0 0
/admin/files/1208 1 2765 0 0
/users/107/privacy 1 0 0 0
/projectfiles 1 3430 0 0
/admin/snippets 1 5146 0 0
/lwHostsCheck.php 1 465 1 1
/admin/files/1208/reviews/1208/edit 1 6031 0 0
/admin/files/1274/reviews/1274/edit 1 6060 0 0
/downloads/download/1276 1 8849 0 0
/admin/users 1 12823 0 0
/admin/files/1181 1 2780 0 0
END_SIDER
