AWSTATS DATA FILE 7.7 (build 20180105)
# If you remove this file, all statistics for date 201812 will be lost/reset.
# Last config file used to build this data file was /home/appneuro/tmp/awstats/ssl/awstats.app.neurosig.com.conf.

# Position (offset in bytes) in this file for beginning of each section for
# direct I/O access. If you made changes somewhere in this file, you should
# also remove completely the MAP section (AWStats will rewrite it at next
# update).
BEGIN_MAP 28
POS_GENERAL 2017                
POS_TIME 2695                
POS_VISITOR 8158                
POS_DAY 9851                
POS_DOMAIN 3468                
POS_LOGIN 3856                
POS_ROBOT 4011                
POS_WORMS 4579                
POS_EMAILSENDER 4710                
POS_EMAILRECEIVER 4853                
POS_SESSION 10609               
POS_SIDER 10815               
POS_FILETYPES 4988                
POS_DOWNLOADS 5150                
POS_OS 5198                
POS_BROWSER 5414                
POS_SCREENSIZE 6013                
POS_UNKNOWNREFERER 6087                
POS_UNKNOWNREFERERBROWSER 6471                
POS_ORIGIN 6765                
POS_SEREFERRALS 6902                
POS_PAGEREFS 7143                
POS_SEARCHWORDS 7419                
POS_KEYWORDS 7571                
POS_MISC 2358                
POS_ERRORS 7630                
POS_CLUSTER 3712                
POS_SIDER_404 7755                
END_MAP

# LastLine    = Date of last record processed - Last record line number in last log - Last record offset in last log - Last record signature value
# FirstTime   = Date of first visit for history file
# LastTime    = Date of last visit for history file
# LastUpdate  = Date of last update - Nb of parsed records - Nb of parsed old records - Nb of parsed new records - Nb of parsed corrupted - Nb of parsed dropped
# TotalVisits = Number of visits
# TotalUnique = Number of unique visitors
# MonthHostsKnown   = Number of hosts known
# MonthHostsUnKnown = Number of hosts unknown
BEGIN_GENERAL 8
LastLine 20190101003641 25 6824 8580230773419
FirstTime 20181201055945
LastTime 20181231163048
LastUpdate 20190101070153 25 0 24 0 0
TotalVisits 80                  
TotalUnique 38                  
MonthHostsKnown 0                   
MonthHostsUnknown 43                  
END_GENERAL

# Misc ID - Pages - Hits - Bandwidth
BEGIN_MISC 10
AddToFavourites 0 24 0
PDFSupport 0 0 0
FlashSupport 0 0 0
TotalMisc 0 0 0
RealPlayerSupport 0 0 0
QuickTimeSupport 0 0 0
JavascriptDisabled 0 0 0
WindowsMediaPlayerSupport 0 0 0
DirectorSupport 0 0 0
JavaEnabled 0 0 0
END_MISC

# Hour - Pages - Hits - Bandwidth - Not viewed Pages - Not viewed Hits - Not viewed Bandwidth
BEGIN_TIME 24
0 1 6 530121 20 25 373394
1 7 17 1067650 37 58 1249343
2 3 8 533564 21 29 49391
3 1 1 5974 31 45 1242386
4 6 21 1596442 14 23 1402135
5 2 7 532130 18 19 22042
6 33 58 2211060 21 27 61871
7 35 63 2920337 31 40 424405
8 0 0 0 14 19 15466
9 6 7 360421 21 27 2345710
10 20 49 1666160 20 28 62046
11 13 18 41065 15 20 363963
12 9 23 1240813 31 54 1109026
13 2 10 590197 23 28 2359557
14 25 26 239845 34 42 45257
15 1 2 20026 30 40 1593299
16 167 187 7293611 261 270 501526
17 15 20 659986 44 56 1083206
18 6 6 31591 20 28 894583
19 1 1 5974 17 22 528041
20 2 2 3158 17 22 30500
21 1 1 0 8 9 10857
22 14 14 48275 31 40 735588
23 1 2 24082 22 31 883857
END_TIME

# Domain - Pages - Hits - Bandwidth
# The 25 first Pages must be first (order not required for others)
BEGIN_DOMAIN 13
us 347 490 17875721
gb 4 14 1063410
dk 4 9 535629
de 4 4 0
pl 2 2 3447
eu 2 2 11948
cn 2 2 8112
co 1 6 530119
ca 1 1 1725
id 1 1 1723
za 1 6 530120
ru 1 6 530121
sk 1 6 530407
END_DOMAIN

# Cluster ID - Pages - Hits - Bandwidth
BEGIN_CLUSTER 0
END_CLUSTER

# Login - Pages - Hits - Bandwidth - Last visit
# The 10 first Pages must be first (order not required for others)
BEGIN_LOGIN 0
END_LOGIN

# Robot ID - Hits - Bandwidth - Last visit - Hits on robots.txt
# The 25 first Hits must be first (order not required for others)
BEGIN_ROBOT 11
bingbot/ 238 2795174 20181231220607 63
Googlebot/ 193 6335204 20181231163047 13
AhrefsBot/ 33 37555 20181230084616 10
bingpreview 22 6685544 20181231132430 0
YandexBot/ 13 15886 20181230022414 6
aiHitBot/ 12 1020239 20181205175637 2
bot[\s_+:,\.\;\/\\-] 9 36504 20181228042024 0
(firefox/)([0-9]\.|[0-1][0]\.) 6 34008 20181213011136 0
no_user_agent 3 12168 20181224125542 0
unknown 2 48 20181225162510 2
Wget/ 2 11948 20181205191656 0
END_ROBOT

# Worm ID - Hits - Bandwidth - Last visit
# The 5 first Hits must be first (order not required for others)
BEGIN_WORMS 0
END_WORMS

# EMail - Hits - Bandwidth - Last visit
# The 20 first Hits must be first (order not required for others)
BEGIN_EMAILSENDER 0
END_EMAILSENDER

# EMail - Hits - Bandwidth - Last visit
# The 20 first hits must be first (order not required for others)
BEGIN_EMAILRECEIVER 0
END_EMAILRECEIVER

# Files type - Hits - Bandwidth - Bandwidth without compression - Bandwidth after compression
BEGIN_FILETYPES 5
png 41 600780 0 0
js 49 15757605 0 0
Unknown 327 1073359 0 0
html 44 72184 0 0
css 88 4118554 0 0
END_FILETYPES

# Downloads - Hits - Bandwidth
BEGIN_DOWNLOADS 0
END_DOWNLOADS

# OS ID - Hits
BEGIN_OS ID - Hits - Pages 11
Unknown 12 12
win7 207 114
ios_iphone 34 33
macosx 17 12
winxp 4 0
linux 31 11
win8.1 71 51
linuxandroid 2 2
win10 132 99
macosx11 6 5
ios_ipad 33 32
END_OS

# Browser ID - Hits - Pages
BEGIN_BROWSER 30
chrome49.0.2623.75 3 3
msie10.0 8 0
safari10.0 2 2
safari11.0 62 62
chrome42.0.2311.90 2 2
firefox64.0 14 4
chrome71.0.3578.98 16 11
firefox11.0 4 0
chrome70.0.3538.77 1 1
iphone 1 0
mozilla 3 3
safari5.0.4 1 1
safari11.1.2 11 11
chrome59.0.3071.125 1 1
firefox61.0 31 31
Unknown 9 9
firefox47.0 2 2
chrome40.0.2214.85 4 4
android 1 1
msie7.0 3 0
chrome67.0.3396.99 11 11
chrome60.0.3095.0 12 2
chrome69.0.3497.100 12 2
chrome60.0.3112.101 2 2
chrome70.0.3538.110 68 53
chrome67.0.3396.87 6 1
msie11.0 251 146
safari 2 1
edge16 2 2
firefox52.0 4 3
END_BROWSER

# Screen size - Hits
BEGIN_SCREENSIZE 0
END_SCREENSIZE

# Unknown referer OS - Last visit date
BEGIN_UNKNOWNREFERER 6
WordPress/4.9.9;_https://support.neurosig.com 20181220172924
\ 20181201141909
Mozilla/5.0_(compatible;_NetcraftSurveyAgent/1.0;__info@netcraft.com) 20181209114730
WordPress/4.9.8;_https://support.neurosig.com 20181210014519
Zend_Http_Client 20181202110315
WP_Rocket/Partial_Preload 20181210014512
END_UNKNOWNREFERER

# Unknown referer Browser - Last visit date
BEGIN_UNKNOWNREFERERBROWSER 5
WP_Rocket/Partial_Preload 20181210014512
\ 20181201141909
WordPress/4.9.9;_https://support.neurosig.com 20181220172924
Zend_Http_Client 20181202110315
WordPress/4.9.8;_https://support.neurosig.com 20181210014519
END_UNKNOWNREFERERBROWSER

# Origin - Pages - Hits 
BEGIN_ORIGIN 6
From0 67 84
From1 0 0
From2 7 7
From3 3 23
From4 294 435
From5 0 0
END_ORIGIN

# Search engine referers ID - Pages - Hits
BEGIN_SEREFERRALS 5
www_google_com_co 1 1
www_google_com 2 2
www_google_co_za 1 1
yandexru 1 1
www_google_com_hk 2 2
END_SEREFERRALS

# External page referers - Pages - Hits
# The 25 first Pages must be first (order not required for others)
BEGIN_PAGEREFS 4
https://neurosig.com 1 1
https://support.neurosig.com 1 1
https://support.neurosig.com/wp-login.php 1 1
https://sucuri.net 0 20
END_PAGEREFS

# Search keyphrases - Number of search
# The 10 first number of search must be first (order not required for others)
BEGIN_SEARCHWORDS 0
END_SEARCHWORDS

# Search keywords - Number of search
# The 25 first number of search must be first (order not required for others)
BEGIN_KEYWORDS 0
END_KEYWORDS

# Errors - Hits - Bandwidth
BEGIN_ERRORS 4
421 1 322
302 428 86815
404 11 56629
500 5 11135
END_ERRORS

# URL with 404 errors - Hits - Last URL referrer
BEGIN_SIDER_404 3
/.well-known/assetlinks.json 2 -
/.git/HEAD 4 -
/svg/500.svg 5 https://app.neurosig.com/files
END_SIDER_404

# Host - Pages - Hits - Bandwidth - Last visit date - [Start date of last visit] - [Last page of last visit]
# [Start date of last visit] and [Last page of last visit] are saved only if session is not finished
# The 25 first Hits must be first (order not required for others)
BEGIN_VISITOR 43
35.175.205.111 97 108 4018100 20181230163313
167.98.110.171 94 177 6821778 20181220074300
52.203.142.240 69 78 3269689 20181231163048
68.101.212.149 41 43 452053 20181219121343
174.79.254.102 11 16 658033 20181220172910
68.101.213.15 6 6 19040 20181204221239
67.225.190.162 6 6 5341 20181220172924
82.25.116.237 4 14 1063410 20181226124302
80.209.148.212 4 9 535629 20181205040501
138.246.253.5 4 4 0 20181226213643
35.189.203.248 3 4 354969 20181225162714
72.199.22.227 2 15 552155 20181210014515
69.4.89.106 2 2 11948 20181205183725
64.233.172.239 2 2 3160 20181214202528
69.4.87.74 2 2 11948 20181205183739
60.191.38.77 2 2 8112 20181226163925
197.245.216.150 1 6 530120 20181212025222
159.65.181.64 1 1 5974 20181205034100
46.248.167.156 1 1 1725 20181202110315
64.233.172.241 1 1 1721 20181214202121
192.99.1.38 1 1 1725 20181205091959
34.204.6.119 1 6 530410 20181210013438
178.140.138.20 1 6 530121 20181213001531
3.81.31.220 1 6 530408 20181211051422
64.202.160.250 1 1 1437 20181207112059
66.249.84.84 0 2 40052 
66.102.8.50 0 1 424 
66.102.8.52 0 1 350169 
66.102.8.48 1 4 179813 20181205043036
165.227.213.26 1 1 4056 20181209114730
93.119.227.91 1 1 5974 20181205191656
198.59.113.176 1 1 1721 20181205185852
66.249.84.80 0 1 20026 
34.247.67.58 1 1 1437 20181203162913
121.101.130.26 1 1 1723 20181225010638
188.167.251.135 1 6 530407 20181210041403
46.248.173.40 1 1 1722 20181201055945
54.205.168.169 1 1 1721 20181204022540
93.119.227.19 1 1 5974 20181205183726
186.113.22.82 1 6 530119 20181207135041
66.249.84.82 0 1 20026 
165.227.178.71 1 1 4056 20181204231736
18.208.204.107 1 1 4056 20181201141909
END_VISITOR

# Date - Pages - Hits - Bandwidth - Visits
BEGIN_DAY 31
20181201 7 8 364486 3
20181202 6 7 360430 2
20181203 6 7 360144 2
20181204 19 25 930856 5
20181205 60 89 2955753 12
20181206 57 110 3271304 5
20181207 7 13 890258 3
20181208 6 7 360430 2
20181209 6 7 362757 2
20181210 12 28 1955037 5
20181211 6 12 889119 2
20181212 26 47 2540796 4
20181213 14 21 938087 3
20181214 7 8 361865 3
20181215 5 6 358707 1
20181216 5 6 358703 1
20181217 5 6 358710 1
20181218 5 6 358705 1
20181219 7 9 516451 3
20181220 28 39 1587981 4
20181221 6 6 10332 1
20181222 6 6 10344 1
20181223 6 6 10337 1
20181224 6 6 10332 1
20181225 10 11 367028 3
20181226 13 23 1081860 4
20181227 6 6 10335 1
20181228 6 6 10330 1
20181229 6 6 10337 1
20181230 6 6 10337 1
20181231 6 6 10331 1
END_DAY

# Session range - Number of visits
BEGIN_SESSION 7
30mn-1h 3
2mn-5mn 2
15mn-30mn 2
30s-2mn 5
5mn-15mn 2
1h+ 2
0s-30s 64
END_SESSION

# URL - Pages - Bandwidth - Entry - Exit
# The 25 first Pages must be first (order not required for others)
BEGIN_SIDER 29
/login 192 360773 52 49
/ 44 72184 27 19
/password/reset 24 39759 0 2
/files 21 185441 0 3
/downloads 20 268569 0 3
/welcome 19 42269 0 0
/uploads/create 18 43542 0 0
/uploader 6 13432 0 0
/api/auth 3 840 0 2
/admin/snippets/12/edit 2 6045 0 0
/projectfiles 2 13748 0 0
/oauth/token 2 2780 1 0
/uploader-store 2 114 0 0
/admin/files/1205/reviews/1205/edit 1 5906 0 1
/admin/files/1406/reviews/1406/edit 1 5905 0 0
/admin/files/1405/reviews/1405/edit 1 5922 0 0
/admin/files/1404/reviews/1404/edit 1 5911 0 0
/excel 1 14336 0 1
/admin/files/1407/reviews/1407/edit 1 5909 0 0
/admin/files/1400/reviews/1400/edit 1 5935 0 0
/projectfiles/1398 1 2650 0 0
/admin/files/1273/reviews/1273/edit 1 6083 0 0
/admin/files/1401/reviews/1401/edit 1 5909 0 0
/admin/files/1399/reviews/1399/edit 1 5935 0 0
/admin/files/1259/reviews/1259/edit 1 5969 0 0
/projectfiles/1124 1 2603 0 0
/admin/files/1068/reviews/1068/edit 1 5967 0 0
/admin/files/1398/reviews/1398/edit 1 5986 0 0
/admin/snippets 1 5121 0 0
END_SIDER
