AWSTATS DATA FILE 7.7 (build 20180105)
# If you remove this file, all statistics for date 202001 will be lost/reset.
# Last config file used to build this data file was /home/appneuro/tmp/awstats/ssl/awstats.appdev.neurosig.com.conf.

# Position (offset in bytes) in this file for beginning of each section for
# direct I/O access. If you made changes somewhere in this file, you should
# also remove completely the MAP section (AWStats will rewrite it at next
# update).
BEGIN_MAP 28
POS_GENERAL 2020                
POS_TIME 2694                
POS_VISITOR 8861                
POS_DAY 11842               
POS_DOMAIN 3373                
POS_LOGIN 3800                
POS_ROBOT 3955                
POS_WORMS 4296                
POS_EMAILSENDER 4427                
POS_EMAILRECEIVER 4570                
POS_SESSION 12543               
POS_SIDER 12722               
POS_FILETYPES 4705                
POS_DOWNLOADS 4856                
POS_OS 4904                
POS_BROWSER 5050                
POS_SCREENSIZE 5488                
POS_UNKNOWNREFERER 5562                
POS_UNKNOWNREFERERBROWSER 6046                
POS_ORIGIN 6467                
POS_SEREFERRALS 6601                
POS_PAGEREFS 6745                
POS_SEARCHWORDS 6893                
POS_KEYWORDS 7045                
POS_MISC 2358                
POS_ERRORS 7104                
POS_CLUSTER 3656                
POS_SIDER_404 7215                
END_MAP

# LastLine    = Date of last record processed - Last record line number in last log - Last record offset in last log - Last record signature value
# FirstTime   = Date of first visit for history file
# LastTime    = Date of last visit for history file
# LastUpdate  = Date of last update - Nb of parsed records - Nb of parsed old records - Nb of parsed new records - Nb of parsed corrupted - Nb of parsed dropped
# TotalVisits = Number of visits
# TotalUnique = Number of unique visitors
# MonthHostsKnown   = Number of hosts known
# MonthHostsUnKnown = Number of hosts unknown
BEGIN_GENERAL 8
LastLine 20200201054230 8 1239 8611981467805
FirstTime 20200101063006
LastTime 20200131104638
LastUpdate 20200201071135 8 0 7 0 0
TotalVisits 122                 
TotalUnique 76                  
MonthHostsKnown 0                   
MonthHostsUnknown 76                  
END_GENERAL

# Misc ID - Pages - Hits - Bandwidth
BEGIN_MISC 10
FlashSupport 0 0 0
JavaEnabled 0 0 0
QuickTimeSupport 0 0 0
DirectorSupport 0 0 0
PDFSupport 0 0 0
RealPlayerSupport 0 0 0
WindowsMediaPlayerSupport 0 0 0
AddToFavourites 0 1 0
TotalMisc 0 0 0
JavascriptDisabled 0 0 0
END_MISC

# Hour - Pages - Hits - Bandwidth - Not viewed Pages - Not viewed Hits - Not viewed Bandwidth
BEGIN_TIME 24
0 4 4 7654 8 8 33601
1 6 6 12720 3 3 8250
2 4 4 5180 6 6 28541
3 2 2 5068 6 6 14717
4 48 48 171142 8 8 13668
5 8 8 12832 14 14 38218
6 4 4 6360 11 11 75743
7 8 13 541536 2 2 4478
8 3 3 6360 1 1 2239
9 7 7 12720 9 9 32487
10 3 3 3884 4 4 21555
11 9 9 16608 3 3 12716
12 5 5 6482 5 5 14285
13 9 9 15318 1 1 2239
14 6 11 541411 7 11 54516
15 5 5 6482 3 3 6717
16 6 6 10252 15 15 51572
17 8 8 18972 5 11 32189
18 6 6 7790 8 8 22961
19 5 5 8944 9 9 38906
20 8 13 544001 10 10 45373
21 3 3 6359 13 14 44515
22 5 10 535162 14 16 61955
23 3 3 8861 16 16 52550
END_TIME

# Domain - Pages - Hits - Bandwidth
# The 25 first Pages must be first (order not required for others)
BEGIN_DOMAIN 16
us 95 95 224313
ru 16 16 23251
zz 12 12 15533
nl 11 11 39015
gb 10 10 17924
fr 7 7 9076
za 6 6 22632
dk 4 4 15088
de 4 24 2119933
gr 3 3 11316
cn 2 2 7544
br 1 1 1295
cz 1 1 1294
it 1 1 1295
al 1 1 1295
ca 1 1 1294
END_DOMAIN

# Cluster ID - Pages - Hits - Bandwidth
BEGIN_CLUSTER 0
END_CLUSTER

# Login - Pages - Hits - Bandwidth - Last visit
# The 10 first Pages must be first (order not required for others)
BEGIN_LOGIN 0
END_LOGIN

# Robot ID - Hits - Bandwidth - Last visit - Hits on robots.txt
# The 25 first Hits must be first (order not required for others)
BEGIN_ROBOT 5
no_user_agent 51 177524 20200131193729 1
bot[\s_+:,\.\;\/\\-] 5 18980 20200131050615 0
libwww\-perl 3 11316 20200107123101 0
(firefox/)([0-9]\.|[0-1][0]\.) 2 2585 20200130212644 0
curl 1 3772 20200111094017 0
END_ROBOT

# Worm ID - Hits - Bandwidth - Last visit
# The 5 first Hits must be first (order not required for others)
BEGIN_WORMS 0
END_WORMS

# EMail - Hits - Bandwidth - Last visit
# The 20 first Hits must be first (order not required for others)
BEGIN_EMAILSENDER 0
END_EMAILSENDER

# EMail - Hits - Bandwidth - Last visit
# The 20 first hits must be first (order not required for others)
BEGIN_EMAILRECEIVER 0
END_EMAILRECEIVER

# Files type - Hits - Bandwidth - Bandwidth without compression - Bandwidth after compression
BEGIN_FILETYPES 5
css 12 633960 0 0
php 9 11730 0 0
png 4 80104 0 0
html 166 385616 0 0
js 4 1400688 0 0
END_FILETYPES

# Downloads - Hits - Bandwidth
BEGIN_DOWNLOADS 0
END_DOWNLOADS

# OS ID - Hits
BEGIN_OS ID - Hits - Pages 7
Unknown 41 41
win7 46 46
winxp 1 1
win10 59 59
linux 44 24
win8 1 1
macosx11 3 3
END_OS

# Browser ID - Hits - Pages
BEGIN_BROWSER 19
chrome66.0.3359.117 2 2
chrome57.0.2987.133 5 5
chrome34.0.1847.137 1 1
netscape5.0 21 21
firefox65.0 3 3
chrome52.0.2743.116 42 42
chrome41.0.2228.0 4 4
firefox58.0 1 1
mozilla 5 5
chrome55.0.3056.110 1 1
Unknown 21 21
chrome72.0.3602.2 6 6
chrome74.0.3729.169 3 3
msie6.0 1 1
chrome78.0.3904.108 25 25
chrome50.0.2661.102 2 2
chrome60.0.3112.113 27 27
firefox50.0 24 4
firefox47.0 1 1
END_BROWSER

# Screen size - Hits
BEGIN_SCREENSIZE 0
END_SCREENSIZE

# Unknown referer OS - Last visit date
BEGIN_UNKNOWNREFERER 6
HTTP_Banner_Detection_(https://security.ipip.net) 20200127215816
Mozilla/5.0_(compatible;_NetcraftSurveyAgent/1.0;__info@netcraft.com) 20200102231529
Go-http-client/1.1 20200107155825
NetSystemsResearch_studies_the_availability_of_various_services_across_the_internet._Our_website_is_netsystemsresearch.com 20200124194529
Mozilla/5.0_zgrab/0.x 20200131025737
python-requests/2.22.0 20200123004807
END_UNKNOWNREFERER

# Unknown referer Browser - Last visit date
BEGIN_UNKNOWNREFERERBROWSER 5
HTTP_Banner_Detection_(https://security.ipip.net) 20200127215816
NetSystemsResearch_studies_the_availability_of_various_services_across_the_internet._Our_website_is_netsystemsresearch.com 20200124194529
Go-http-client/1.1 20200107155825
kubectl/v1.12.0_(linux/amd64)_kubernetes/0ed3388 20200121013617
python-requests/2.22.0 20200123004807
END_UNKNOWNREFERERBROWSER

# Origin - Pages - Hits 
BEGIN_ORIGIN 6
From0 175 195
From1 0 0
From2 0 0
From3 0 0
From4 0 0
From5 0 0
END_ORIGIN

# Search engine referers ID - Pages - Hits
BEGIN_SEREFERRALS 0
END_SEREFERRALS

# External page referers - Pages - Hits
# The 25 first Pages must be first (order not required for others)
BEGIN_PAGEREFS 0
END_PAGEREFS

# Search keyphrases - Number of search
# The 10 first number of search must be first (order not required for others)
BEGIN_SEARCHWORDS 0
END_SEARCHWORDS

# Search keywords - Number of search
# The 25 first number of search must be first (order not required for others)
BEGIN_KEYWORDS 0
END_KEYWORDS

# Errors - Hits - Bandwidth
BEGIN_ERRORS 3
404 110 484051
301 20 4478
400 1 0
END_ERRORS

# URL with 404 errors - Hits - Last URL referrer
BEGIN_SIDER_404 62
/public/.env 2 -
/.env 6 -
/Telerik.Web.UI.WebResource.axd 2 -
/000000000000.cfg 2 -
/403926033d001b5279df37cbbe5287b7c7c267fa00thisisascan 2 -
/cgi-bin/config.exp 2 -
/phpMyAdmin/print.css 1 -
/version 2 -
/a/.env 1 -
/001565123456.cfg 1 -
/RDWeb/Pages 1 https://67.225.186.80/RDWeb/Pages/
/solr 2 https://67.225.186.80/solr/#/
/aastra 1 -
/provisioning 1 -
/dana-na/nc/nc_gina_ver.txt 1 -
/rpc/rpcproxy.dll 1 -
/tftpboot 2 -
/m/.env 1 -
/remote/login 2 -
/pma/print.css 1 -
/xj9y0XtaUvkKP2fu4gAr 1 -
/.git/index 1 -
/ipeconfig 1 -
/mysql/print.css 1 -
/x 3 -
/Yealink 1 -
/config 1 -
/api/v1 1 -
/storage/.env 1 -
/app/.env 1 -
/global-protect/portal/css/login.css 2 -
/boot 1 -
/admin/.env 1 -
/prov 1 -
/osjdmfjiwdruehnjqfefhrwui 1 -
/cfg 1 -
/dev/.env 1 -
/HNAP1 2 https://67.225.186.80/
/myadmin/print.css 1 -
/.well-known/security.txt 1 -
/vendor/phpunit/phpunit/src/Util/PHP/eval-stdin.php 13 -
/vpns/cfg/smb.conf 2 -
/web/.env 1 -
/.svn/entries 2 -
/database/print.css 1 -
/images/logo_pan_158.gif 1 -
/sitemap.xml 1 -
/cisco 1 -
/api/1/http/upstreams 1 -
/kpasfjoaofjafpjfipahjihohodfag 1 -
/+CSCOE+/logon.html 1 -
/spa 1 -
/core/.env 1 -
/vpn/../vpns/cfg/smb.conf 8 -
/vendor/.env 1 -
/phpmyadmin/print.css 1 -
/api/v1/pods 4 -
/polycom 1 -
/vpns 1 https://67.225.186.80/vpn/../vpns/
/.git2/index 1 -
/ajax 7 -
/api/.env 1 -
END_SIDER_404

# Host - Pages - Hits - Bandwidth - Last visit date - [Start date of last visit] - [Last page of last visit]
# [Start date of last visit] and [Last page of last visit] are saved only if session is not finished
# The 25 first Hits must be first (order not required for others)
BEGIN_VISITOR 76
52.87.242.121 43 43 159718 20200128045038
5.101.0.209 15 15 19479 20200131074122
139.162.113.204 10 10 37720 20200127215816
169.197.108.38 7 7 9066 20200124220218
128.14.133.58 5 5 6468 20200128194128
128.14.134.134 4 4 5174 20200121013617
213.32.122.82 4 4 15088 20200127203744
169.197.108.6 4 4 5173 20200131104638
193.57.40.38 4 4 5195 20200130125353
137.226.113.20 4 24 2119933 20200125145707
71.6.232.7 3 3 3878 20200121073606
71.6.232.9 2 2 2588 20200129172328
172.105.11.111 2 2 0 20200129130751
51.158.121.128 2 2 2588 20200111042133
67.225.243.203 2 2 2591 20200131025737
163.172.163.25 2 2 2588 20200104173610
163.172.164.113 2 2 2591 20200104182203
128.14.134.170 2 2 2590 20200126204538
37.187.74.157 1 1 1295 20200109072352
107.6.171.130 1 1 1292 20200116112509
149.210.179.118 1 1 1295 20200128081006
179.107.111.237 1 1 1295 20200120101215
45.83.67.103 1 1 1294 20200117055908
45.83.65.255 1 1 1295 20200114023149
71.6.146.186 1 1 3772 20200123142304
128.14.209.234 1 1 1293 20200113135623
52.36.251.146 1 1 1293 20200127053457
92.118.161.17 1 1 3772 20200124194529
196.52.43.101 1 1 3772 20200113140535
96.127.169.2 1 1 1294 20200113164242
198.108.66.161 1 1 1296 20200114052355
196.52.43.109 1 1 3772 20200130235506
45.79.152.7 1 1 0 20200120064754
176.31.110.19 1 1 1294 20200112202400
159.203.201.67 1 1 1294 20200131005817
79.137.37.62 1 1 1295 20200115155442
172.105.4.63 1 1 0 20200122171604
92.118.160.5 1 1 3772 20200118043822
196.52.43.116 1 1 3772 20200107091234
185.173.35.9 1 1 3772 20200122065743
176.31.116.217 1 1 1292 20200123004807
159.203.197.0 1 1 1295 20200120010311
92.118.160.25 1 1 3772 20200104171820
106.45.0.148 1 1 3772 20200115174512
198.108.66.208 1 1 1296 20200121200939
107.6.183.226 1 1 1292 20200103193856
159.203.197.15 1 1 1297 20200103141618
13.57.13.170 1 1 1296 20200113122118
128.14.209.226 1 1 1296 20200130132458
51.15.191.81 1 1 3772 20200105013318
128.14.209.178 1 1 1293 20200107112031
51.15.247.217 1 1 1294 20200104202656
159.203.201.194 1 1 1293 20200111153501
54.206.104.155 1 1 1295 20200113110046
167.172.248.151 1 1 3796 20200102231529
77.247.108.240 1 1 1295 20200118120612
198.108.66.192 1 1 1295 20200107135742
196.52.43.88 1 1 3772 20200109171804
192.99.209.235 1 1 1294 20200104091225
185.43.221.135 1 1 1294 20200107155825
13.250.107.219 1 1 1295 20200106152114
223.71.167.164 1 1 3772 20200120010034
52.68.58.217 1 1 1295 20200128145819
198.108.66.80 1 1 1293 20200127213104
206.189.50.62 1 1 1297 20200124224753
51.158.114.198 1 1 1295 20200105095934
45.83.64.243 1 1 1294 20200111164813
172.105.126.88 1 1 1292 20200109050557
196.52.43.64 1 1 3772 20200127165904
54.66.129.117 1 1 1292 20200124114345
196.52.43.96 1 1 3772 20200101110741
198.143.158.178 1 1 1295 20200120125834
18.233.101.122 1 1 1295 20200121173037
169.197.108.42 1 1 1294 20200101063006
100.20.46.31 1 1 1294 20200110051917
128.14.209.242 1 1 1293 20200122093558
END_VISITOR

# Date - Pages - Hits - Bandwidth - Visits
BEGIN_DAY 31
20200101 2 2 5066 2
20200102 4 4 10155 4
20200103 4 9 536344 4
20200104 7 7 11538 6
20200105 3 3 8839 3
20200106 2 2 2591 2
20200107 7 7 14012 7
20200108 2 2 2588 2
20200109 5 5 8946 5
20200110 2 2 2588 2
20200111 6 11 538932 6
20200112 2 2 2587 2
20200113 6 6 12722 6
20200114 3 3 3882 3
20200115 4 4 10133 4
20200116 2 2 1292 2
20200117 6 11 538943 5
20200118 3 3 8839 3
20200119 3 3 6363 3
20200120 5 5 7657 5
20200121 6 6 7778 5
20200122 6 6 11424 6
20200123 8 8 12851 6
20200124 5 5 11428 5
20200125 2 7 531278 2
20200126 1 1 1296 1
20200127 5 5 13902 5
20200128 48 48 166197 5
20200129 4 4 3890 3
20200130 6 6 10265 4
20200131 6 6 7772 4
END_DAY

# Session range - Number of visits
BEGIN_SESSION 4
30s-2mn 3
5mn-15mn 4
0s-30s 112
2mn-5mn 3
END_SESSION

# URL - Pages - Bandwidth - Entry - Exit
# The 25 first Pages must be first (order not required for others)
BEGIN_SIDER 2
/ 166 385616 114 121
/index.php 9 11730 8 1
END_SIDER
