AWSTATS DATA FILE 7.7 (build 20180105)
# If you remove this file, all statistics for date 202004 will be lost/reset.
# Last config file used to build this data file was /home/appneuro/tmp/awstats/ssl/awstats.appdev.neurosig.com.conf.

# Position (offset in bytes) in this file for beginning of each section for
# direct I/O access. If you made changes somewhere in this file, you should
# also remove completely the MAP section (AWStats will rewrite it at next
# update).
BEGIN_MAP 28
POS_GENERAL 2020                
POS_TIME 2678                
POS_VISITOR 5978                
POS_DAY 6133                
POS_DOMAIN 3222                
POS_LOGIN 3450                
POS_ROBOT 3605                
POS_WORMS 3783                
POS_EMAILSENDER 3914                
POS_EMAILRECEIVER 4057                
POS_SESSION 6255                
POS_SIDER 6407                
POS_FILETYPES 4192                
POS_DOWNLOADS 4345                
POS_OS 4393                
POS_BROWSER 4482                
POS_SCREENSIZE 4570                
POS_UNKNOWNREFERER 4644                
POS_UNKNOWNREFERERBROWSER 4816                
POS_ORIGIN 4898                
POS_SEREFERRALS 5032                
POS_PAGEREFS 5189                
POS_SEARCHWORDS 5337                
POS_KEYWORDS 5489                
POS_MISC 2342                
POS_ERRORS 5548                
POS_CLUSTER 3306                
POS_SIDER_404 5659                
END_MAP

# LastLine    = Date of last record processed - Last record line number in last log - Last record offset in last log - Last record signature value
# FirstTime   = Date of first visit for history file
# LastTime    = Date of last visit for history file
# LastUpdate  = Date of last update - Nb of parsed records - Nb of parsed old records - Nb of parsed new records - Nb of parsed corrupted - Nb of parsed dropped
# TotalVisits = Number of visits
# TotalUnique = Number of unique visitors
# MonthHostsKnown   = Number of hosts known
# MonthHostsUnKnown = Number of hosts unknown
BEGIN_GENERAL 8
LastLine 20200501183054 1 0 9968473771219
FirstTime 0
LastTime 20200419233353
LastUpdate 20200502080708 1 0 0 0 0
TotalVisits 3                   
TotalUnique 2                   
MonthHostsKnown 0                   
MonthHostsUnknown 2                   
END_GENERAL

# Misc ID - Pages - Hits - Bandwidth
BEGIN_MISC 10
DirectorSupport 0 0 0
JavascriptDisabled 0 0 0
TotalMisc 0 0 0
QuickTimeSupport 0 0 0
AddToFavourites 0 2 0
FlashSupport 0 0 0
PDFSupport 0 0 0
JavaEnabled 0 0 0
WindowsMediaPlayerSupport 0 0 0
RealPlayerSupport 0 0 0
END_MISC

# Hour - Pages - Hits - Bandwidth - Not viewed Pages - Not viewed Hits - Not viewed Bandwidth
BEGIN_TIME 24
0 0 0 0 0 0 0
1 0 0 0 1 1 3796
2 1 1 3796 0 0 0
3 0 0 0 0 0 0
4 0 0 0 0 0 0
5 0 0 0 0 0 0
6 0 0 0 0 0 0
7 0 0 0 0 0 0
8 0 0 0 0 0 0
9 0 0 0 1 1 2239
10 0 0 0 0 0 0
11 0 0 0 0 0 0
12 0 0 0 1 1 3796
13 0 0 0 0 0 0
14 0 0 0 0 0 0
15 0 0 0 0 0 0
16 0 0 0 0 0 0
17 2 7 531266 0 0 0
18 2 2 2578 0 1 11285
19 10 14 418446 8 9 18760
20 15 15 48905 2 2 1158
21 10 10 20450 3 3 0
22 4 4 137828 5 5 2895
23 3 3 13971 5 5 295556
END_TIME

# Domain - Pages - Hits - Bandwidth
# The 25 first Pages must be first (order not required for others)
BEGIN_DOMAIN 1
us 47 56 1177240
END_DOMAIN

# Cluster ID - Pages - Hits - Bandwidth
BEGIN_CLUSTER 0
END_CLUSTER

# Login - Pages - Hits - Bandwidth - Last visit
# The 10 first Pages must be first (order not required for others)
BEGIN_LOGIN 0
END_LOGIN

# Robot ID - Hits - Bandwidth - Last visit - Hits on robots.txt
# The 25 first Hits must be first (order not required for others)
BEGIN_ROBOT 1
bot[\s_+:,\.\;\/\\-] 3 11388 20200429010908 0
END_ROBOT

# Worm ID - Hits - Bandwidth - Last visit
# The 5 first Hits must be first (order not required for others)
BEGIN_WORMS 0
END_WORMS

# EMail - Hits - Bandwidth - Last visit
# The 20 first Hits must be first (order not required for others)
BEGIN_EMAILSENDER 0
END_EMAILSENDER

# EMail - Hits - Bandwidth - Last visit
# The 20 first hits must be first (order not required for others)
BEGIN_EMAILRECEIVER 0
END_EMAILRECEIVER

# Files type - Hits - Bandwidth - Bandwidth without compression - Bandwidth after compression
BEGIN_FILETYPES 5
Unknown 18 218893 0 0
js 2 700344 0 0
css 5 160676 0 0
png 2 40052 0 0
html 29 57275 0 0
END_FILETYPES

# Downloads - Hits - Bandwidth
BEGIN_DOWNLOADS 0
END_DOWNLOADS

# OS ID - Hits
BEGIN_OS ID - Hits - Pages 2
Unknown 1 1
win10 55 46
END_OS

# Browser ID - Hits - Pages
BEGIN_BROWSER 2
chrome80.0.3987.163 55 46
mozilla 1 1
END_BROWSER

# Screen size - Hits
BEGIN_SCREENSIZE 0
END_SCREENSIZE

# Unknown referer OS - Last visit date
BEGIN_UNKNOWNREFERER 1
Mozilla/5.0_(compatible;_NetcraftSurveyAgent/1.0;__info@netcraft.com) 20200404025924
END_UNKNOWNREFERER

# Unknown referer Browser - Last visit date
BEGIN_UNKNOWNREFERERBROWSER 0
END_UNKNOWNREFERERBROWSER

# Origin - Pages - Hits 
BEGIN_ORIGIN 6
From0 4 4
From1 0 0
From2 25 25
From3 0 0
From4 18 27
From5 0 0
END_ORIGIN

# Search engine referers ID - Pages - Hits
BEGIN_SEREFERRALS 1
amazon 25 25
END_SEREFERRALS

# External page referers - Pages - Hits
# The 25 first Pages must be first (order not required for others)
BEGIN_PAGEREFS 0
END_PAGEREFS

# Search keyphrases - Number of search
# The 10 first number of search must be first (order not required for others)
BEGIN_SEARCHWORDS 0
END_SEARCHWORDS

# Search keywords - Number of search
# The 25 first number of search must be first (order not required for others)
BEGIN_KEYWORDS 0
END_KEYWORDS

# Errors - Hits - Bandwidth
BEGIN_ERRORS 3
500 21 303083
302 1 205
404 1 2239
END_ERRORS

# URL with 404 errors - Hits - Last URL referrer
BEGIN_SIDER_404 1
/JZHp 1 -
END_SIDER_404

# Host - Pages - Hits - Bandwidth - Last visit date - [Start date of last visit] - [Last page of last visit]
# [Start date of last visit] and [Last page of last visit] are saved only if session is not finished
# The 25 first Hits must be first (order not required for others)
BEGIN_VISITOR 2
68.101.213.89 46 55 1173444 20200419233353
157.245.220.110 1 1 3796 20200404025924
END_VISITOR

# Date - Pages - Hits - Bandwidth - Visits
BEGIN_DAY 3
20200404 1 1 3796 1
20200415 4 9 533844 1
20200419 42 46 639600 1
END_DAY

# Session range - Number of visits
BEGIN_SESSION 2
1h+ 2
0s-30s 1
END_SESSION

# URL - Pages - Bandwidth - Entry - Exit
# The 25 first Pages must be first (order not required for others)
BEGIN_SIDER 11
/ 29 57275 3 2
/admin/users 5 35100 0 0
/admin/snippets 2 9812 0 1
/admin/files 2 128763 0 0
/projectfiles 2 18922 0 0
/downloads 2 5818 0 0
/welcome 1 2045 0 0
/uploader 1 2014 0 0
/uploads/create 1 2206 0 0
/login 1 1574 0 0
/files 1 12639 0 0
END_SIDER
